%YAML 1.1
%TAG !u! tag:unity3d.com,2011:
--- !u!114 &11400000
MonoBehaviour:
  m_ObjectHideFlags: 0
  m_CorrespondingSourceObject: {fileID: 0}
  m_PrefabInstance: {fileID: 0}
  m_PrefabAsset: {fileID: 0}
  m_GameObject: {fileID: 0}
  m_Enabled: 1
  m_EditorHideFlags: 0
  m_Script: {fileID: 682965911, guid: f7fff1a98506b0033937160dbbe857ba, type: 3}
  m_Name: 8thWallXR
  m_EditorClassIdentifier: 
  allChannels:
  - release
  - beta
  channel: release
  installedChannel: release
  version: 14.0.7.949
  autoUpdate: 1
  autoUpdateSec: 3600
  updateTimeoutSec: 25
  downloadTimeoutSec: 600
  updateAvailable: 0
  releaseNotes:
  - id: 14
    notes: '## Release 14


      ### 8th Wall Web

      New Features:

      - Introducing 8th Wall Face Effects: Attach 3D objects to face attachment points
      and paint your face with custom materials, shaders or videos.

      - Selfie Mode: Use the front camera with a mirrored display to get the perfect
      selfie shot.

      - Desktop Browsers: Enable your image target and face effect experiences to
      run in desktop browsers utilizing the webcam.


      Fixes and Enhancements:

      - Enhanced capture field of view on Pixel 4/4XL phones.

      - Enhanced camera profiles for certain phone models.

      - Fixed an issue with changing device orientation during startup.

      - Fixed an issue with swapping the camera direction on the same a-scene.

      - Fixed an issue with AFrame look-controls not being removed on scene restart.

      - Improved experience for some Android phones with multiple cameras.

      - Other fixes and enhancements.


      XRExtras Enhancements:

      - Enhanced almost there flows for experiences that can be viewed on desktop.

      - PauseOnBlur module stops the camera when your tab is not active.

      - New AFrame components for easy face effects and desktop experience development.

      - New ThreeExtras for rendering PBR materials, basic materials, and videos to
      faces.


      ### Unity


      Fixes and Enhancements:

      - Update to XCode build postprocessor supports new Unity APIs.'
  - id: 13.2
    notes: '## Release 13.2


      ### 8th Wall Web

      New Features:

      - Release camera stream on XR8.pause and reopen on XR8.resume.

      - Added API to access shader program and modify uniforms used by GlTextureRenderer.

      - Added API to configure WebGL context on run.


      Fixes and Enhancements:

      - Fix black video issue on iOS when a user long-presses on an image.

      - Improved iOS screenshot capture speed and reliability.

      - Fixed alpha channel rendering when taking a screenshot.

      - Improved experience for some Android phones with multiple cameras.

      - Improved detection of social network web views.


      XRExtras Enhancements:

      - Improved QR codes with better compatibility with native cameras.

      - Improved link out flows for social networks.

      - Improved CSS customization.



'
  - id: 13.1
    notes: '## Release 13.1


      ### 8th Wall Web

      New Features:

      - Improved framerate on high resolution Android phones.

      - Camera pipeline can be stopped and restarted.

      - Camera pipeline modules can be removed at runtime or when stopped.

      - New lifecycle callbacks for attaching and detaching.


      Fixes and Enhancements:

      -  Improved experience for some Android phones with multiple cameras.

      -  Fixed iOS phone calibration on iOS 12.2 and above.

'
  - id: 13
    notes: '## Release 13


      Adds support for cloud-based creation, collaboration, publishing, and hosting
      of WebAR content.'
  - id: 12.1
    notes: '## Release 12.1


      ### 8th Wall Web


      Fixes and Enhancements:

      * Increased camera resolution on newer iOS devices.

      * Increased AFrame fps on high-res Android devices.

      * Fixed three.js r103+ raycasting issues.

      * Added support for iPadOS.

      * Fixed memory issue when loading many image targets repeatedly.

      * Minor performance enhances and bug fixes.'
  - id: 12
    notes: "## Release 12\n\n### 8th Wall Web\nNew Features:\n- Increased image target
      upload limit to 1000 image targets per app.\n- New API for selecting active
      image targets at runtime.\n- Apps can now scan for up to 10 image targets simultaneously.\n-
      Front facing camera is supported in camera framework and image targets.\n- Engine
      support for PlayCanvas.\n\nFixes:\n-  Improved experience for some Android phones
      with multiple cameras.\n\nXRExtras:\n- Improved visual quality on Android Phones.
      \n- Support for iOS 13 device orientation permissions.\n- Better error handling
      for missing web assembly on some older versions of iOS.\n- Support for PlayCanvas."
  - id: 11.2
    notes: '## Release 11.2


      ### 8th Wall Web


      New Features

      * iOS 13 motion support


      ### 8th Wall XR for Unity


      New Features

      * Added support for 64-bit Android builds.

      * Updated to ARCore 1.9.

      * Added XRDetectedImageTarget.TrackingState API.


      Breaking Changes

      * Increased minimum Unity version from 5.6.1p1 to 2017.4.16f1.

'
  - id: 11.1
    notes: '## Release 11.1


      ### 8th Wall Web


      Fixes and Enhancements

      * Reduced memory usage.

      * Improved tracking performance.

      * Enhanced detection of browser capabilities.


      ### 8th Wall XR for Unity


      Fixes and Enhancements

      * Reduced memory usage.

      * Improved tracking performance.

'
  - id: 11
    notes: '## Release 11


      ### 8th Wall Web

      New Features:

      - Added support for Image Targets.

      - Added support for BabylonJS.

      - Reduced JS binary size to 1MB.

      - Added support running 8th Wall Web inside a cross-origin iframe.

      - Minor API additions.


      ### 8th Wall XR for Unity

      Fixes:

      - Allow continuous ARKit image tracking on iOS 12.0 when image targets are provided'
  - id: 10.1
    notes: "## Release 10.1\n\n### 8th Wall Web\nNew Features:\n- Added support for
      A-Frame 0.9.0.\n\nFixes:\n- Fixed error when providing `includedTypes` to XrController.hitTest().\n-
      Reduced memory usage when tracking over extended distances.\n\n### 8th Wall
      XR for Unity\nFixes:\n- Fixed issue which reduced framerate on slower ARCore
      devices. \n- Fixed issue where old frames would be displayed on slower ARCore
      devices.\n- Fixed crash on ARKit devices when ARWorldTrackingConfiguration is
      not available.\n- Fixed issue on ARCore devices where camera permissions were
      not requested properly in apps built with Unity 2018.3 or newer."
